Zillow Case Missingness Visualization Experiment
…
missing_cols = apply(m_train, 1, function(x) sum(is.na(x)))
# finding the number of missing columns per parcel id 
m_train$missing_cols = missing_cols
# adding a new column for missing rows

missing_combinations = m_train %>% group_by(missing_cols) %>% 
  summarise(number = n(), mean_abs = mean(abs(logerror)), sd = sd(logerror))
# getting the number of missing combinations

missing_combinations$percent_missing = missing_combinations$number/sum(missing_combinations$number)*100
# adding in percentages ## number = number of rows with x missing_cols
missing_combinations

## # A tibble: 24 x 5
##    missing_cols number   mean_abs         sd percent_missing
##           <int>  <int>      <dbl>      <dbl>           <dbl>
##  1           19      2 0.04050000 0.05727565     0.002215453
##  2           20     14 0.07040000 0.09795870     0.015508169
##  3           21     79 0.05991519 0.08578312     0.087510385
##  4           22    271 0.05503616 0.11629817     0.300193852
##  5           23    585 0.06260410 0.12564835     0.648019939
##  6           24    713 0.06444628 0.17387436     0.789808917
##  7           25   6570 0.06290262 0.15338818     7.277762393
##  8           26   8857 0.07107910 0.16785793     9.811132650
##  9           27  13942 0.06192030 0.14961787    15.443921351
## 10           28  23669 0.07032072 0.16653497    26.218775962
## # ... with 14 more rows
…
